[gd_scene load_steps=6 format=2]

[ext_resource path="res://map/tileNavigation.gd" type="Script" id=1]
[ext_resource path="res://map/OcclusionGrid.tscn" type="PackedScene" id=2]
[ext_resource path="res://tileset.tres" type="TileSet" id=3]
[ext_resource path="res://map/tileGrid.gd" type="Script" id=4]
[ext_resource path="res://Actor.tscn" type="PackedScene" id=5]

[node name="SceneBase" type="Node2D"]

[node name="TileNavigation" type="Navigation2D" parent="."]
script = ExtResource( 1 )

[node name="OcclusionGrid" parent="TileNavigation" instance=ExtResource( 2 )]

[node name="TileGrid" type="TileMap" parent="TileNavigation"]
tile_set = ExtResource( 3 )
cell_size = Vector2( 20, 20 )
cell_quadrant_size = 5
cell_custom_transform = Transform2D( 20, 0, 0, 20, 0, 0 )
format = 1
script = ExtResource( 4 )

[node name="Actor" parent="TileNavigation/TileGrid" instance=ExtResource( 5 )]

[node name="Line2D" type="Line2D" parent="TileNavigation"]
editor/display_folded = true
texture_mode = -1083705352
