[gd_scene load_steps=3 format=2]

[ext_resource path="res://images/Slime.png" type="Texture" id=1]
[ext_resource path="res://items/slime.gd" type="Script" id=2]

[node name="slime" type="TextureRect"]
margin_left = -0.666321
margin_top = 0.999985
margin_right = 46.3337
margin_bottom = 48.0
texture = ExtResource( 1 )
script = ExtResource( 2 )
