[gd_resource type="Animation" format=2]

[resource]
resource_name = "bump"
length = 0.15
step = 0.01
tracks/0/type = "value"
tracks/0/path = NodePath("Sprite:position")
tracks/0/interp = 1
tracks/0/loop_wrap = true
tracks/0/imported = false
tracks/0/enabled = true
tracks/0/keys = {
"times": PoolRealArray( -0.02, 0.07, 0.1, 0.15 ),
"transitions": PoolRealArray( 1, 1, 1, 1 ),
"update": 0,
"values": [ Vector2( 0, 0 ), Vector2( 4, -5 ), Vector2( 6.5, 2.5 ), Vector2( 0, 0 ) ]
}
