[gd_scene load_steps=6 format=2]

[ext_resource path="res://characters/snake.gd" type="Script" id=1]
[ext_resource path="res://characters/snake.png" type="Texture" id=2]
[ext_resource path="res://vfx/AnimationPlayer.tscn" type="PackedScene" id=3]
[ext_resource path="res://images/Anger.png" type="Texture" id=4]

[sub_resource type="CircleShape2D" id=1]
radius = 7.51922

[node name="Snake" type="KinematicBody2D"]
script = ExtResource( 1 )

[node name="Sprite" type="Sprite" parent="."]
texture = ExtResource( 2 )
region_rect = Rect2( 0, 0, 20, 20 )

[node name="CollisionShape2D" type="CollisionShape2D" parent="."]
shape = SubResource( 1 )

[node name="AnimationPlayer" parent="." instance=ExtResource( 3 )]
editor/display_folded = true

[node name="Label" type="Label" parent="."]
margin_left = -32.9401
margin_top = -18.1829
margin_right = 7.05993
margin_bottom = -4.18292

[node name="Anger" type="Sprite" parent="."]
visible = false
texture = ExtResource( 4 )
