[gd_scene load_steps=2 format=2]

[ext_resource path="res://images/Black.png" type="Texture" id=1]

[node name="Node2D" type="Node2D"]

[node name="Black" type="Sprite" parent="."]
position = Vector2( 10.9325, 10.0306 )
texture = ExtResource( 1 )
