[gd_scene load_steps=9 format=2]

[ext_resource path="res://tiles/tileMaker.gd" type="Script" id=1]
[ext_resource path="res://tiles/dirt.png" type="Texture" id=2]
[ext_resource path="res://tiles/granite.png" type="Texture" id=3]
[ext_resource path="res://tiles/ground.png" type="Texture" id=4]
[ext_resource path="res://tiles/rock.png" type="Texture" id=5]
[ext_resource path="res://tiles/rocky.png" type="Texture" id=6]
[ext_resource path="res://tiles/steel.png" type="Texture" id=7]

[sub_resource type="NavigationPolygon" id=8]

[node name="Node2D" type="Node2D"]
script = ExtResource( 1 )

[node name="dirt" type="Sprite" parent="."]
position = Vector2( -100.878, 85.451 )
texture = ExtResource( 2 )

[node name="granite" type="Sprite" parent="."]
position = Vector2( -59.7527, 87.2679 )
texture = ExtResource( 3 )

[node name="ground" type="Sprite" parent="."]
position = Vector2( -27.9298, 87.0721 )
texture = ExtResource( 4 )

[node name="NavigationPolygonInstance" type="NavigationPolygonInstance" parent="ground"]
navpoly = SubResource( 8 )

[node name="rock" type="Sprite" parent="."]
position = Vector2( 7.47428, 86.9795 )
texture = ExtResource( 5 )

[node name="rocky" type="Sprite" parent="."]
position = Vector2( 45.0189, 87.6125 )
texture = ExtResource( 6 )

[node name="steel" type="Sprite" parent="."]
position = Vector2( 80.6827, 88.1528 )
texture = ExtResource( 7 )
