[gd_scene load_steps=3 format=2]

[ext_resource path="res://crafting/inventoryMenu.gd" type="Script" id=1]
[ext_resource path="res://crafting/ItemList.tscn" type="PackedScene" id=2]

[node name="InventoryMenu" type="Node2D"]
z_index = 999
script = ExtResource( 1 )

[node name="Control" type="Control" parent="."]
anchor_right = 1.0
anchor_bottom = 1.0
margin_left = 0.333313
margin_top = -1.0
margin_right = -0.666687

[node name="PanelContainer" type="PanelContainer" parent="Control"]
margin_left = 1.0
margin_top = 1.0
margin_right = 201.0
margin_bottom = 76.0

[node name="ItemList" parent="Control/PanelContainer" instance=ExtResource( 2 )]
margin_left = 7.0
margin_top = 7.0
margin_right = 193.0
margin_bottom = 68.0
rect_scale = Vector2( 1, 1 )
fixed_icon_size = Vector2( 20, 20 )
